2024-10-03_ExplorePuzzling_UP_vs_Expression_Effects
…
EnsemblStableIDs <- dat %>%
  filter(OriginGenome!="Rat_UCSC.rn7_RefSeqv108") %>%
  mutate(StableID = str_remove(Gene_name, "\\..+")) %>%
  distinct(StableID) %>% pull(StableID)

CordosoSamples %>% 
  distinct(Label_As_in_PreviousAnalysis, `Stage (detail)`,ID_Species) %>%
  filter(Label_As_in_PreviousAnalysis!=`Stage (detail)` )

# A tibble: 157 × 3
   ID_Species `Stage (detail)` Label_As_in_PreviousAnalysis
   <chr>      <chr>            <chr>                       
 1 Rabbit     12 days          e12                         
 2 Rabbit     13 days          e13                         
 3 Rabbit     14 days          e14                         
 4 Rabbit     15.5 days        e15                         
 5 Rabbit     16.5 days        e16                         
 6 Rabbit     18 days          e18                         
 7 Rabbit     19.5 days        e20                         
 8 Rabbit     21 days          e21                         
 9 Rabbit     23 days          e23                         
10 Rabbit     24 days          e24                         
# … with 147 more rows
…
