2024-09-10_RedoMazinJuncAnalysisFixedClassifications
…
Conserved.dev.AS.toHighlight.WithGTEx <- GTEx.DE.DS %>%
  mutate(Intron_coord.Human = str_glue("{Hg38_chrom}:{Hg38_start}-{Hg38_end}")) %>%
  inner_join(Conserved.dev.AS.toHighlight) %>%
  arrange(intron, GTEx_Tissue1) %>%
  filter(GTEx_Tissue1 == "Brain-Cerebellum" | GTex_Tissue2 == "Brain-Cerebellum")

Conserved.dev.AS.toHighlight.WithGTEx

# A tibble: 31 × 23
   GTEx_Tissue1     GTex_Tissue2  gene_id gene_name intron Hg38_chrom Hg38_start
   <chr>            <chr>         <chr>   <chr>     <chr>  <chr>           <dbl>
 1 Brain-Cerebellum Kidney-Cortex ENSG00… SCN8A     chr12… chr12        51780271
 2 Brain-Cerebellum Liver         ENSG00… SCN8A     chr12… chr12        51780271
 3 Brain-Cerebellum Ovary         ENSG00… SCN8A     chr12… chr12        51780271
 4 Brain-Cerebellum Testis        ENSG00… SCN8A     chr12… chr12        51780271
 5 Brain-Cerebellum Heart-LeftVe… ENSG00… ARHGAP17  chr16… chr16        24954730
 6 Brain-Cerebellum Kidney-Cortex ENSG00… ARHGAP17  chr16… chr16        24954730
 7 Brain-Cerebellum Liver         ENSG00… ARHGAP17  chr16… chr16        24954730
 8 Brain-Cerebellum Ovary         ENSG00… ARHGAP17  chr16… chr16        24954730
 9 Brain-Cerebellum Testis        ENSG00… ARHGAP17  chr16… chr16        24954730
10 Brain-Cerebellum Liver         ENSG00… SRRM2     chr16… chr16         2768261
# … with 21 more rows, and 16 more variables: Hg38_end <dbl>,
#   GTExAnalysisClusterName <chr>, cluster <chr>, itype <chr>, ctype <chr>,
#   deltapsi <dbl>, g_l2fc <dbl>, g_z <dbl>, g_l2fcSE <dbl>,
#   Intron_coord.Human <glue>, Gene_name.Human <chr>, external_gene_name <chr>,
#   SplicingDevSign <dbl>, Strand.Human <chr>, Species.Tissues <chr>,
#   NumberConservedSpeciesTissuePairs <int>
…
PSI.JuncsOfInterest %>%
  distinct(ID_Species, Tissue_ForDevelopementalAnalysis, gene, junc, corr, P, q) %>%
  arrange(gene, Tissue_ForDevelopementalAnalysis, ID_Species)

# A tibble: 51 × 7
   ID_Species Tissue_ForDevelopementalAn… gene  junc      corr        P        q
   <fct>      <chr>                       <chr> <chr>    <dbl>    <dbl>    <dbl>
 1 Human      Brain                       DNAJ… chr2… -6.19e-1 7.69e- 7 1.62e- 5
 2 Macaque    Brain                       DNAJ… chr2… -5.47e-1 3.82e- 3 8.25e- 2
 3 Mouse      Brain                       DNAJ… chr2… -8.73e-1 4.05e-18 4.31e-16
 4 Rat        Brain                       DNAJ… chr2… -9.05e-1 4.48e-25 7.03e-23
 5 Rabbit     Brain                       DNAJ… chr2… -7.03e-1 1.08e- 9 4.04e- 8
 6 Human      Heart                       DNAJ… chr2…  9.16e-2 5.64e- 1 5.37e- 1
 7 Macaque    Heart                       DNAJ… chr2…  1.43e-2 9.42e- 1 7.69e- 1
 8 Mouse      Heart                       DNAJ… chr2… -3.11e-1 2.09e- 2 1.08e- 1
 9 Rat        Heart                       DNAJ… chr2… -2.19e-4 9.99e- 1 6.24e- 1
10 Rabbit     Heart                       DNAJ… chr2… -7.10e-2 6.03e- 1 6.00e- 1
# … with 41 more rows
…
PSI.JuncsOfInterest %>%
  # filter(gene %in% c("DNAJC5")) %>%
  filter(!is.na(PSI)) %>%
              arrange(gene, ID_Species, Tissue_ForDevelopementalAnalysis, desc(Ordinal_stage), PSI) %>%
              distinct(gene, ID_Species, Tissue_ForDevelopementalAnalysis, .keep_all=T) %>%
              mutate( SigCode = if_else(P<0.05, "*", NA_character_)) %>%
  dplyr::select(gene, ID_Species, Tissue_ForDevelopementalAnalysis,SigCode)

# A tibble: 51 × 4
   gene   ID_Species Tissue_ForDevelopementalAnalysis SigCode
   <chr>  <fct>      <chr>                            <chr>  
 1 DNAJC5 Human      Brain                            *      
 2 DNAJC5 Human      Heart                            <NA>   
 3 DNAJC5 Human      Liver                            *      
 4 DNAJC5 Macaque    Brain                            *      
 5 DNAJC5 Macaque    Heart                            <NA>   
 6 DNAJC5 Macaque    Liver                            *      
 7 DNAJC5 Mouse      Brain                            *      
 8 DNAJC5 Mouse      Heart                            *      
 9 DNAJC5 Mouse      Liver                            <NA>   
10 DNAJC5 Rat        Brain                            *      
# … with 41 more rows
…
