2024-09-30_ContinousTimeSplicingModel
…
Heart.AndLiver.qq.normed <- Heart.AndLiver %>%
  group_by(junc, Tissue_ForDevelopementalAnalysis) %>%
  mutate(PSI.normalized = scale(PSI)) %>%
  mutate(var.PSI = var(PSI, na.rm = T)) %>%
  ungroup() %>%
  group_by(ID, Tissue_ForDevelopementalAnalysis) %>%
  mutate(PSI.normalized = qnorm(dense_rank(PSI.normalized)/(sum(!is.na(PSI.normalized)) + 1))) %>%
  ungroup()
  
Example.Junc.Heart.AndLiver.qq.normed <- Heart.AndLiver.qq.normed %>%
  filter(str_detect(junc, "chr20:63931182:63931465"))

Example.Junc.Heart.AndLiver.qq.normed

# A tibble: 93 × 10
   junc  ID      PSI ID_Species ID_Organ ID_Stage Ordinal_stage Tissue_ForDevel…
   <chr> <chr> <dbl> <chr>      <chr>    <chr>            <dbl> <chr>           
 1 chr2… Huma…  0    Human      Heart    10w                  7 Heart           
 2 chr2… Huma… 35.7  Human      Liver    10w                  7 Liver           
 3 chr2… Huma… 18.2  Human      Liver    10w                  7 Liver           
 4 chr2… Huma… 10.7  Human      Heart    11w                  8 Heart           
 5 chr2… Huma…  0    Human      Heart    11w                  8 Heart           
 6 chr2… Huma… 24.4  Human      Liver    11w                  8 Liver           
 7 chr2… Huma…  5.88 Human      Heart    12w                  9 Heart           
 8 chr2… Huma… 30    Human      Liver    18w                 12 Liver           
 9 chr2… Huma… 30.4  Human      Liver    18w                 12 Liver           
10 chr2… Huma… 25    Human      Liver    20w                 14 Liver           
# … with 83 more rows, and 2 more variables: PSI.normalized <dbl>,
#   var.PSI <dbl>
…
