2024-06-06_ExploreMazinData
…
Let’s see how many unique events we left with looking at those most
conserved ones that go back all the way to chicken (and are
concordant)

SignificantDevAS.OrthoSegments.TissueSpeciesPairs %>%
  filter(pattern.x %in% c('u', 'd')) %>%
  mutate(IsPatternConcordant = pattern.x == pattern.y) %>%
  filter(species.y == 'chi.') %>%
  distinct(human.seg.id)

# A tibble: 583 × 1
   human.seg.id                       
   <chr>                              
 1 hum.6668.s7:10:-:13693903:13693974 
 2 hum.6692.s20:10:-:15880227:15880278
 3 hum.6821.s16:10:-:21102939:21102972
 4 hum.6821.s18:10:-:21104554:21104646
 5 hum.7045.s5:10:-:24879135:24879408 
 6 hum.7045.s37:10:-:24911662:24911691
 7 hum.6912.s4:10:-:27044584:27044670 
 8 hum.6912.s14:10:-:27060004:27060018
 9 hum.7054.s43:10:-:29815890:29815985
10 hum.7082.s4:10:-:33195991:33196071 
# … with 573 more rows
…
