2024-10-16_FinalFigs
…
PotentialJuncsToHighlight

# A tibble: 52 × 5
   Intron_coord.Hum… external_gene_n… sign_dpsi Species.Tissues NumberConserved…
   <chr>             <chr>                <dbl> <chr>                      <int>
 1 chr20:35632923-3… RBM12                    1 Macaque Brain,…               10
 2 chr5:55468149-55… PLPP1                   -1 Macaque Brain,…               10
 3 chr16:2768261-27… SRRM2                    1 Mouse Brain, R…                9
 4 chr19:38840559-3… HNRNPL                   1 Opossum Brain,…                9
 5 chr2:152694622-1… PRPF40A                  1 Mouse Brain, R…                9
 6 chr2:170842648-1… GAD1                    -1 Macaque Brain,…                9
 7 chr2:170842654-1… GAD1                    -1 Macaque Brain,…                9
 8 chr19:38841682-3… HNRNPL                   1 Opossum Brain,…                8
 9 chr16:24954730-2… ARHGAP17                 1 Rabbit Brain, …                7
10 chr2:152714629-1… PRPF40A                  1 Macaque Brain,…                7
# … with 42 more rows
…
